[
  {
    "produto": "marmita mai ou menos",
    "preco": 16.40
  },
  {
    "produto": "molho show",
    "preco": 3.20
  },
  {
    "produto": "coquinha gelada hmmm",
    "preco": 10.50
  },
  {
    "produto": "maconha",
    "preco": 10
  },
  {
    "produto": "sopa eca",
    "preco": 17.30
  },
  {
    "produto": "dogão top com bacon + guaranazin",
    "preco": 12.90
  },
  {
    "produto": "frango empanadim",
    "preco": 10
  }
]
